<?xml version="1.0" encoding="utf-8"?>
<!-- Generator: Adobe Illustrator 25.0.1, SVG Export Plug-In . SVG Version: 6.00 Build 0)  -->
<svg version="1.1" id="Livello_1" xmlns="http://www.w3.org/2000/svg" xmlns:xlink="http://www.w3.org/1999/xlink" x="0px" y="0px"
	 viewBox="0 0 1080 1080" style="enable-background:new 0 0 1080 1080;" xml:space="preserve">
<style type="text/css">
	.st0{fill:#717070;}
</style>
<g id="Raggruppa_55" transform="translate(-141.25 -1841.25)">
	<path id="Tracciato_83" class="st0" d="M174.67,2105.34c-13.86,0-25.09-11.23-25.09-25.09c0.04-50.78,41.19-91.93,91.97-91.97
		c13.86,0.05,25.05,11.32,25,25.18c-0.05,13.79-11.21,24.96-25,25c-23.06,0.04-41.75,18.73-41.79,41.79
		C199.76,2094.1,188.53,2105.34,174.67,2105.34z"/>
	<path id="Tracciato_84" class="st0" d="M1177.74,2105.34c-13.86,0-25.09-11.23-25.09-25.09c-0.04-23.07-18.73-41.75-41.79-41.79
		c-13.86,0.05-25.13-11.15-25.18-25c-0.05-13.85,11.15-25.13,25-25.18c0.06,0,0.12,0,0.18,0c50.78,0.04,91.93,41.2,91.97,91.97
		C1202.83,2094.1,1191.6,2105.34,1177.74,2105.34C1177.74,2105.34,1177.74,2105.34,1177.74,2105.34z"/>
	<path id="Tracciato_85" class="st0" d="M308.28,2506.62c-87.7-0.09-158.77-71.16-158.85-158.85
		c-0.55-13.84,10.24-25.51,24.08-26.06c13.85-0.55,25.51,10.24,26.06,24.09c0.03,0.65,0.03,1.31,0,1.97
		c0,60.06,48.69,108.75,108.75,108.75c0,0,0,0,0,0c13.86-0.05,25.13,11.15,25.18,25c0.05,13.85-11.15,25.13-25,25.18
		c-0.06,0-0.12,0-0.18,0L308.28,2506.62z"/>
	<path id="Tracciato_86" class="st0" d="M1044.13,2506.62c-13.86-0.05-25.05-11.32-25-25.18c0.05-13.79,11.21-24.96,25-25
		c60.06,0,108.75-48.69,108.75-108.75l0,0c-0.05-13.86,11.15-25.13,25-25.18c13.86-0.05,25.13,11.14,25.18,25c0,0.06,0,0.12,0,0.18
		C1203.02,2435.45,1131.89,2506.58,1044.13,2506.62z"/>
	<path id="Tracciato_87" class="st0" d="M1110.82,2038.45H241.55c-13.86,0.05-25.13-11.15-25.18-25
		c-0.05-13.85,11.15-25.13,25-25.18c0.06,0,0.12,0,0.18,0h869.46c13.86-0.05,25.13,11.15,25.18,25c0.05,13.85-11.15,25.13-25,25.18
		c-0.06,0-0.12,0-0.18,0H1110.82z"/>
	<path id="Tracciato_88" class="st0" d="M1177.9,2372.86c-13.86,0-25.09-11.23-25.09-25.09V2080.4c0.05-13.86,11.32-25.05,25.18-25
		c13.79,0.05,24.95,11.22,25,25v267.52C1202.9,2361.72,1191.69,2372.86,1177.9,2372.86z"/>
	<path id="Tracciato_89" class="st0" d="M174.67,2372.86c-13.86,0-25.09-11.23-25.09-25.09V2080.4
		c-0.55-13.84,10.24-25.51,24.08-26.06c13.85-0.55,25.51,10.24,26.06,24.09c0.03,0.65,0.03,1.31,0,1.97v267.52
		C199.64,2361.71,188.46,2372.84,174.67,2372.86z"/>
	<path id="Tracciato_90" class="st0" d="M1043.98,2506.62H308.44c-13.86,0.05-25.13-11.15-25.18-25
		c-0.05-13.85,11.15-25.13,25-25.18c0.06,0,0.12,0,0.18,0h735.7c13.86,0.05,25.05,11.32,25,25.18c-0.05,13.79-11.21,24.96-25,25
		H1043.98z"/>
	<path id="Tracciato_91" class="st0" d="M1044.13,2506.62c-13.86,0-25.09-11.23-25.09-25.09v-133.61
		c-0.55-13.84,10.23-25.52,24.08-26.07c13.85-0.55,25.52,10.23,26.06,24.08c0.03,0.66,0.03,1.32,0,1.99v133.76
		C1069.1,2495.47,1057.91,2506.6,1044.13,2506.62z"/>
	<path id="Tracciato_92" class="st0" d="M308.44,2506.62c-13.86,0-25.09-11.23-25.09-25.09v-133.61
		c-0.55-13.84,10.24-25.51,24.08-26.06c13.85-0.55,25.51,10.24,26.06,24.08c0.03,0.65,0.03,1.31,0,1.97v133.76
		C333.4,2495.47,322.22,2506.6,308.44,2506.62z"/>
	<path id="Tracciato_93" class="st0" d="M1043.98,2372.86H308.44c-13.86-0.05-25.05-11.32-25-25.18c0.05-13.79,11.21-24.96,25-25
		h735.7c13.86,0.05,25.05,11.32,25,25.18c-0.05,13.79-11.21,24.96-25,25H1043.98z"/>
	<path id="Tracciato_94" class="st0" d="M709.57,2239.1h-66.73c-13.86-0.05-25.05-11.32-25-25.18c0.05-13.79,11.21-24.96,25-25
		h66.88c13.86-0.05,25.13,11.15,25.18,25c0.05,13.85-11.15,25.13-25,25.18c-0.06,0-0.12,0-0.18,0H709.57z"/>
	<path id="Tracciato_95" class="st0" d="M676.28,2774.15c-13.86,0-25.09-11.23-25.09-25.09v-133.61
		c-0.55-13.84,10.24-25.51,24.08-26.06c13.85-0.55,25.51,10.24,26.06,24.08c0.03,0.65,0.03,1.31,0,1.97v133.76
		C701.25,2763,690.07,2774.13,676.28,2774.15z"/>
	<path id="Tracciato_96" class="st0" d="M275,2774.15c-13.86-0.05-25.05-11.32-25-25.18c0.05-13.79,11.21-24.96,25-25
		c60.06,0,108.75-48.69,108.75-108.75l0,0c-0.55-13.84,10.24-25.51,24.08-26.06c13.85-0.55,25.51,10.24,26.06,24.08
		c0.03,0.65,0.03,1.31,0,1.97C433.85,2702.96,362.74,2774.08,275,2774.15z"/>
	<path id="Tracciato_97" class="st0" d="M1077.42,2774.15c-87.7-0.09-158.77-71.16-158.85-158.85c-0.05-13.86,11.15-25.13,25-25.18
		c13.86-0.05,25.13,11.14,25.18,25c0,0.06,0,0.12,0,0.18c0,60.06,48.69,108.75,108.75,108.75h0c13.86,0.05,25.05,11.32,25,25.18
		c-0.05,13.79-11.21,24.96-25,25L1077.42,2774.15z"/>
	<path id="Tracciato_98" class="st0" d="M509.08,2774.15c-13.86-0.01-25.08-11.25-25.07-25.1c0-6.21,2.31-12.19,6.47-16.8
		c20.24-22.41,26.95-42.45,26.95-116.95c-0.55-13.84,10.24-25.51,24.08-26.06c13.85-0.55,25.51,10.24,26.06,24.08
		c0.03,0.65,0.03,1.31,0,1.97c0,75.04-5.55,112.64-39.89,150.58C522.93,2771.14,516.17,2774.15,509.08,2774.15z"/>
	<path id="Tracciato_99" class="st0" d="M843.33,2774.15c-7.09,0-13.86-3-18.6-8.27c-34.37-38.02-39.89-75.54-39.89-150.58
		c0-13.86,11.23-25.09,25.09-25.09c13.86,0,25.09,11.23,25.09,25.09c0,74.49,6.72,94.53,26.95,116.95
		c9.29,10.28,8.48,26.15-1.8,35.44c-4.61,4.16-10.59,6.47-16.8,6.47H843.33z"/>
</g>
</svg>
