<?xml version="1.0" encoding="utf-8"?>
<!-- Generator: Adobe Illustrator 25.0.1, SVG Export Plug-In . SVG Version: 6.00 Build 0)  -->
<svg version="1.1" id="Livello_1" xmlns="http://www.w3.org/2000/svg" xmlns:xlink="http://www.w3.org/1999/xlink" x="0px" y="0px"
	 viewBox="0 0 1080 1080" style="enable-background:new 0 0 1080 1080;" xml:space="preserve">
<style type="text/css">
	.st0{fill:#F0F0F0;}
</style>
<g id="Raggruppa_83" transform="translate(-552.136 -346.867)">
	<path id="Tracciato_136" class="st0" d="M1407.4,665.81c-1.6-174.18-144.09-314.09-318.27-312.49
		c-171.53,1.57-310.35,139.95-312.48,311.47c-0.4,73.28,0,146.59,0,219.86s-0.26,146.59,0,219.86
		c-0.28,174.19,140.7,315.63,314.88,315.91c174.19,0.28,315.63-140.69,315.91-314.88l0,0
		C1407.94,958.96,1407.93,812.39,1407.4,665.81z M1349.98,885.9c2.91,85.07,0.74,170.24-6.5,255.06
		c-15.76,130.97-130.3,227.33-262.04,220.45c-135.7-5.83-243.55-116.04-246.43-251.84c-3.63-148.77-3.63-297.62,0-446.56
		c3.1-142.08,120.79-254.75,262.87-251.66c138.96,3.03,250.4,115.85,251.71,254.84c2.38,73.09,0.4,146.44,0.4,219.68
		c-1.5,0,1.57,0,0.03,0L1349.98,885.9z"/>
	<path id="Tracciato_137" class="st0" d="M1206.02,1075.65l-12.5,12.79c-33.8,32.05-65.78,66.81-101.82,103.54
		c-35.92-36.55-68.05-71.48-101.82-103.54l-12.5-12.79c-14.62-14.91-30.7-25.58-48.68-8.33l0,0l-0.4,0.37
		c-18.27,17.8-8.15,34.43,6.8,49.34c43.05,43.05,86.21,86.07,128.83,129.59c10.87,15.38,32.14,19.04,47.52,8.17
		c3.17-2.24,5.93-5,8.17-8.17c42.65-43.49,85.77-86.51,128.83-129.59c14.95-14.91,25.03-31.54,6.8-49.34
		C1237.02,1049.88,1220.64,1060.48,1206.02,1075.65z"/>
	<path id="Tracciato_138" class="st0" d="M1092.15,723.19c14.98,0,27.12-12.14,27.12-27.12l0,0V585.59
		c0-14.98-12.14-27.12-27.12-27.12s-27.12,12.14-27.12,27.12v110.44c-0.02,14.98,12.11,27.13,27.08,27.15
		C1092.12,723.19,1092.14,723.19,1092.15,723.19z"/>
</g>
</svg>
